<?xml version="1.0"?>
<VTKFile type="UnstructuredGrid" version="0.1" byte_order="LittleEndian">
  <UnstructuredGrid>
    <Piece NumberOfCells="32" NumberOfPoints="66">
      <PointData Scalars="Sg">
        <DataArray type="Float32" Name="Sg" NumberOfComponents="1" format="ascii">
          0 0 0 0 0 0 0 0 0 0 0 0
          0 0 0 0 0 0 0 0 0 0 0 0
          0 0 0 0 0 0 0 0 0 0 0 0
          0 0 0 0 0 0 0 0 0 0 0 0
          0 0 0 0 0 0 0 0 0 0 0 0
          0 0 0 0 0 0
        </DataArray>
        <DataArray type="Float32" Name="Sl" NumberOfComponents="1" format="ascii">
          1 1 1 1 1 1 1 1 1 1 1 1
          1 1 1 1 1 1 1 1 1 1 1 1
          1 1 1 1 1 1 1 1 1 1 1 1
          1 1 1 1 1 1 1 1 1 1 1 1
          1 1 1 1 1 1 1 1 1 1 1 1
          1 1 1 1 1 1
        </DataArray>
        <DataArray type="Float32" Name="pg" NumberOfComponents="1" format="ascii">
          118916 118916 118989 118989 118843 118843 118770 118770 118697 118697 118624 118624
          118551 118551 118478 118478 118405 118405 118186 118186 117967 117967 117748 117748
          117529 117529 117310 117310 117091 117091 116872 116872 116653 116653 116055 116055
          115456 115456 114858 114858 114259 114259 113661 113661 113063 113063 112465 112465
          111867 111867 111590 111590 111314 111314 111038 111038 110762 110762 110487 110487
          110212 110212 109938 109938 109667 109667
        </DataArray>
        <DataArray type="Float32" Name="pl" NumberOfComponents="1" format="ascii">
          109250 109250 109323 109323 109177 109177 109104 109104 109031 109031 108958 108958
          108885 108885 108812 108812 108739 108739 108520 108520 108301 108301 108082 108082
          107863 107863 107644 107644 107425 107425 107206 107206 106987 106987 106388 106388
          105790 105790 105191 105191 104593 104593 103994 103994 103396 103396 102798 102798
          102201 102201 101924 101924 101647 101647 101371 101371 101095 101095 100820 100820
          100545 100545 100272 100272 100000 100000
        </DataArray>
        <DataArray type="Float32" Name="pc" NumberOfComponents="1" format="ascii">
          9666.67 9666.67 9666.67 9666.67 9666.67 9666.67 9666.67 9666.67 9666.67 9666.67 9666.67 9666.67
          9666.67 9666.67 9666.67 9666.67 9666.67 9666.67 9666.67 9666.67 9666.67 9666.67 9666.67 9666.67
          9666.67 9666.67 9666.67 9666.67 9666.67 9666.67 9666.67 9666.67 9666.67 9666.67 9666.67 9666.67
          9666.67 9666.67 9666.67 9666.67 9666.67 9666.67 9666.67 9666.67 9666.67 9666.67 9666.67 9666.67
          9666.67 9666.67 9666.67 9666.67 9666.67 9666.67 9666.67 9666.67 9666.67 9666.67 9666.67 9666.67
          9666.67 9666.67 9666.67 9666.67 9666.67 9666.67
        </DataArray>
        <DataArray type="Float32" Name="rhoL" NumberOfComponents="1" format="ascii">
          1001.4 1001.4 1001.4 1001.4 1001.4 1001.4 1001.41 1001.41 1001.41 1001.41 1001.41 1001.41
          1001.41 1001.41 1001.42 1001.42 1001.42 1001.42 1001.43 1001.43 1001.43 1001.43 1001.44 1001.44
          1001.45 1001.45 1001.45 1001.45 1001.46 1001.46 1001.47 1001.47 1001.47 1001.47 1001.49 1001.49
          1001.51 1001.51 1001.52 1001.52 1001.54 1001.54 1001.55 1001.55 1001.57 1001.57 1001.57 1001.57
          1001.58 1001.58 1001.58 1001.58 1001.58 1001.58 1001.57 1001.57 1001.56 1001.56 1001.55 1001.55
          1001.52 1001.52 1001.49 1001.49 1001.45 1001.45
        </DataArray>
        <DataArray type="Float32" Name="rhoG" NumberOfComponents="1" format="ascii">
          2.09246 2.09246 2.09378 2.09378 2.09113 2.09113 2.08981 2.08981 2.08849 2.08849 2.08717 2.08717
          2.08585 2.08585 2.08452 2.08452 2.0832 2.0832 2.07924 2.07924 2.07527 2.07527 2.0713 2.0713
          2.06734 2.06734 2.06337 2.06337 2.0594 2.0594 2.05543 2.05543 2.05147 2.05147 2.04062 2.04062
          2.02978 2.02978 2.01894 2.01894 2.0081 2.0081 1.99726 1.99726 1.98642 1.98642 1.97559 1.97559
          1.96476 1.96476 1.95975 1.95975 1.95474 1.95474 1.94974 1.94974 1.94474 1.94474 1.93975 1.93975
          1.93478 1.93478 1.92982 1.92982 1.9249 1.9249
        </DataArray>
        <DataArray type="Float32" Name="mobL" NumberOfComponents="1" format="ascii">
          1103.57 1103.57 1103.57 1103.57 1103.57 1103.57 1103.57 1103.57 1103.57 1103.57 1103.57 1103.57
          1103.57 1103.57 1103.57 1103.57 1103.57 1103.57 1103.57 1103.57 1103.57 1103.57 1103.57 1103.57
          1103.57 1103.57 1103.57 1103.57 1103.57 1103.57 1103.57 1103.57 1103.57 1103.57 1103.57 1103.57
          1103.57 1103.57 1103.57 1103.57 1103.57 1103.57 1103.57 1103.57 1103.57 1103.57 1103.56 1103.56
          1103.54 1103.54 1103.53 1103.53 1103.51 1103.51 1103.48 1103.48 1103.45 1103.45 1103.4 1103.4
          1103.34 1103.34 1103.24 1103.24 1103.12 1103.12
        </DataArray>
        <DataArray type="Float32" Name="mobG" NumberOfComponents="1" format="ascii">
          0 0 0 0 0 0 0 0 0 0 0 0
          0 0 0 0 0 0 0 0 0 0 0 0
          0 0 0 0 0 0 0 0 0 0 0 0
          0 0 0 0 0 0 0 0 0 0 0 0
          0 0 0 0 0 0 0 0 0 0 0 0
          0 0 0 0 0 0
        </DataArray>
        <DataArray type="Float32" Name="porosity" NumberOfComponents="1" format="ascii">
          0.379073 0.379073 0.37906 0.379056 0.379067 0.379069 0.379065 0.379063 0.379074 0.379073 0.379069 0.379066
          0.379072 0.37907 0.379062 0.379058 0.37909 0.379088 0.379056 0.379056 0.37903 0.37903 0.379007 0.379008
          0.37899 0.378991 0.37898 0.37898 0.378973 0.378974 0.37897 0.378971 0.379036 0.379036 0.379028 0.379028
          0.379067 0.379068 0.379136 0.379136 0.379248 0.379248 0.379425 0.379425 0.379709 0.379709 0.380208 0.380207
          0.380445 0.380446 0.381186 0.381186 0.381875 0.381875 0.38279 0.382789 0.383995 0.383994 0.385589 0.385588
          0.387758 0.387757 0.391218 0.391217 0.399923 0.399923
        </DataArray>
        <DataArray type="Float32" Name="temperature" NumberOfComponents="1" format="ascii">
          298.15 298.15 298.15 298.15 298.15 298.15 298.15 298.15 298.15 298.15 298.15 298.15
          298.15 298.15 298.15 298.15 298.15 298.15 298.15 298.15 298.15 298.15 298.15 298.15
          298.15 298.15 298.15 298.15 298.15 298.15 298.15 298.15 298.15 298.15 298.15 298.15
          298.15 298.15 298.15 298.15 298.15 298.15 298.15 298.15 298.15 298.15 298.15 298.15
          298.15 298.15 298.15 298.15 298.15 298.15 298.15 298.15 298.15 298.15 298.15 298.15
          298.15 298.15 298.15 298.15 298.15 298.15
        </DataArray>
        <DataArray type="Float32" Name="phase presence" NumberOfComponents="1" format="ascii">
          1 1 1 1 1 1 1 1 1 1 1 1
          1 1 1 1 1 1 1 1 1 1 1 1
          1 1 1 1 1 1 1 1 1 1 1 1
          1 1 1 1 1 1 1 1 1 1 1 1
          1 1 1 1 1 1 1 1 1 1 1 1
          1 1 1 1 1 1
        </DataArray>
        <DataArray type="Float32" Name="potential" NumberOfComponents="1" format="ascii">
          0.147803 0.147803 0.148985 0.148985 0.146621 0.146621 0.14544 0.14544 0.144258 0.144258 0.143077 0.143077
          0.141895 0.141895 0.140713 0.140713 0.139532 0.139532 0.135988 0.135988 0.132443 0.132443 0.128897 0.128897
          0.125351 0.125351 0.121805 0.121805 0.118258 0.118258 0.114711 0.114711 0.111165 0.111165 0.101478 0.101478
          0.0917934 0.0917934 0.0821136 0.0821136 0.0724419 0.0724419 0.0627827 0.0627827 0.0531431 0.0531431 0.043536 0.043536
          0.033961 0.033961 0.0295437 0.0295437 0.0251534 0.0251535 0.0207937 0.0207937 0.0164739 0.0164739 0.0122061 0.0122061
          0.00800667 0.00800666 0.00390593 0.00390593 0 0
        </DataArray>
        <DataArray type="Float32" Name="boxVolume" NumberOfComponents="1" format="ascii">
          7.9375e-05 7.9375e-05 3.96875e-05 3.96875e-05 7.9375e-05 7.9375e-05 7.9375e-05 7.9375e-05 7.9375e-05 7.9375e-05 7.9375e-05 7.9375e-05
          7.9375e-05 7.9375e-05 7.9375e-05 7.9375e-05 0.00015875 0.00015875 0.000238125 0.000238125 0.000238125 0.000238125 0.000238125 0.000238125
          0.000238125 0.000238125 0.000238125 0.000238125 0.000238125 0.000238125 0.000238125 0.000238125 0.0004445 0.0004445 0.000650875 0.000650875
          0.000650875 0.000650875 0.000650875 0.000650875 0.000650875 0.000650875 0.000650875 0.000650875 0.000650875 0.000650875 0.000650875 0.000650875
          0.00047625 0.00047625 0.000301625 0.000301625 0.000301625 0.000301625 0.000301625 0.000301625 0.000301625 0.000301625 0.000301625 0.000301625
          0.000301625 0.000301625 0.000301625 0.000301625 0.000150812 0.000150812
        </DataArray>
        <DataArray type="Float32" Name="pH" NumberOfComponents="1" format="ascii">
          7.56327 7.5633 7.52957 7.52957 7.59456 7.59456 7.62376 7.62376 7.65114 7.65114 7.67696 7.67696
          7.70139 7.70139 7.72458 7.72458 7.74671 7.74671 7.80226 7.80226 7.85131 7.85131 7.89522 7.89522
          7.9352 7.9352 7.9719 7.9719 8.00596 8.00596 8.03803 8.03803 8.06848 8.06848 8.12938 8.12938
          8.18055 8.18055 8.22383 8.22383 8.26041 8.26041 8.29077 8.29077 8.31414 8.31414 8.32941 8.32941
          8.33323 8.33323 8.32889 8.32889 8.31833 8.31833 8.29874 8.29874 8.26545 8.26545 8.20905 8.20905
          8.10864 8.10864 7.89592 7.89592 6.19963 6.19963
        </DataArray>
        <DataArray type="Float32" Name="Omega" NumberOfComponents="1" format="ascii">
          0 0 0 0 0 0 0 0 0 0 0 0
          0 0 0 0 0 0 0 0 0 0 0 0
          0 0 0 0 0 0 0 0 0 0 0 0
          0 0 0 0 0 0 0 0 0 0 0 0
          0 0 0 0 0 0 0 0 0 0 0 0
          0 0 0 0 0 0
        </DataArray>
        <DataArray type="Float32" Name="Attachment_rate" NumberOfComponents="1" format="ascii">
          0 0 0 0 0 0 0 0 0 0 0 0
          0 0 0 0 0 0 0 0 0 0 0 0
          0 0 0 0 0 0 0 0 0 0 0 0
          0 0 0 0 0 0 0 0 0 0 0 0
          0 0 0 0 0 0 0 0 0 0 0 0
          0 0 0 0 0 0
        </DataArray>
        <DataArray type="Float32" Name="Detachment_rate" NumberOfComponents="1" format="ascii">
          1.15312e-07 1.15312e-07 9.91083e-08 9.91456e-08 1.15284e-07 1.15258e-07 1.15238e-07 1.15258e-07 1.15033e-07 1.15051e-07 1.15008e-07 1.15044e-07
          1.14859e-07 1.14878e-07 1.14852e-07 1.14899e-07 1.14345e-07 1.14368e-07 1.17763e-07 1.1776e-07 1.17603e-07 1.17601e-07 1.17446e-07 1.1744e-07
          1.17285e-07 1.17279e-07 1.17121e-07 1.17115e-07 1.16954e-07 1.16946e-07 1.1678e-07 1.16772e-07 1.1573e-07 1.15723e-07 1.22807e-07 1.22802e-07
          1.21927e-07 1.21921e-07 1.20761e-07 1.20758e-07 1.19173e-07 1.19167e-07 1.16929e-07 1.1693e-07 1.13668e-07 1.13663e-07 1.08289e-07 1.08292e-07
          1.07347e-07 1.07344e-07 9.45947e-08 9.45951e-08 8.90431e-08 8.9046e-08 8.21894e-08 8.21952e-08 7.3806e-08 7.38123e-08 6.33524e-08 6.33599e-08
          4.98922e-08 4.98984e-08 3.09375e-08 3.09424e-08 0 0
        </DataArray>
        <DataArray type="Float32" Name="Growth_rate" NumberOfComponents="1" format="ascii">
          2.36909e-06 2.36909e-06 2.37047e-06 2.37091e-06 2.36874e-06 2.36845e-06 2.36819e-06 2.3684e-06 2.36588e-06 2.36608e-06 2.36556e-06 2.36596e-06
          2.36386e-06 2.36407e-06 2.36373e-06 2.36425e-06 2.35806e-06 2.35831e-06 2.35742e-06 2.35739e-06 2.35548e-06 2.35545e-06 2.35357e-06 2.3535e-06
          2.35163e-06 2.35157e-06 2.34967e-06 2.3496e-06 2.34769e-06 2.34761e-06 2.34564e-06 2.34555e-06 2.33398e-06 2.3339e-06 2.33063e-06 2.33057e-06
          2.32087e-06 2.32081e-06 2.30803e-06 2.308e-06 2.29059e-06 2.29053e-06 2.26594e-06 2.26594e-06 2.22993e-06 2.22987e-06 2.16973e-06 2.16977e-06
          2.15912e-06 2.15909e-06 2.07469e-06 2.07469e-06 2.00673e-06 2.00676e-06 1.91984e-06 1.91992e-06 1.80848e-06 1.80856e-06 1.6601e-06 1.66021e-06
          1.44895e-06 1.44905e-06 1.09388e-06 1.09398e-06 0 0
        </DataArray>
        <DataArray type="Float32" Name="Decay_rate" NumberOfComponents="1" format="ascii">
          3.63055e-08 3.63055e-08 3.6326e-08 3.63328e-08 3.63007e-08 3.62963e-08 3.62928e-08 3.62961e-08 3.62582e-08 3.62611e-08 3.62539e-08 3.626e-08
          3.62286e-08 3.62317e-08 3.62271e-08 3.62351e-08 3.6141e-08 3.61448e-08 3.61332e-08 3.61327e-08 3.61055e-08 3.61051e-08 3.60784e-08 3.60773e-08
          3.6051e-08 3.60501e-08 3.60234e-08 3.60224e-08 3.59956e-08 3.59944e-08 3.5967e-08 3.59657e-08 3.57912e-08 3.579e-08 3.57474e-08 3.57466e-08
          3.56061e-08 3.56052e-08 3.54188e-08 3.54183e-08 3.51628e-08 3.51619e-08 3.47992e-08 3.47993e-08 3.42638e-08 3.42629e-08 3.33573e-08 3.33578e-08
          3.32114e-08 3.32108e-08 3.1922e-08 3.19221e-08 3.08882e-08 3.08887e-08 2.9568e-08 2.95692e-08 2.78795e-08 2.78808e-08 2.56341e-08 2.56358e-08
          2.2448e-08 2.24496e-08 1.71171e-08 1.71187e-08 1.69717e-10 1.69715e-10
        </DataArray>
        <DataArray type="Float32" Name="Volume_Fraction_Biofilm" NumberOfComponents="1" format="ascii">
          0.0165305 0.0165305 0.0165399 0.0165429 0.0165283 0.0165263 0.0165248 0.0165262 0.016509 0.0165103 0.016507 0.0165098
          0.0164955 0.0164969 0.0164948 0.0164985 0.0164556 0.0164574 0.0164521 0.0164518 0.0164395 0.0164393 0.0164271 0.0164266
          0.0164146 0.0164142 0.0164021 0.0164016 0.0163894 0.0163889 0.0163764 0.0163758 0.0162964 0.0162958 0.0162764 0.016276
          0.0162121 0.0162117 0.0161267 0.0161265 0.0160096 0.0160092 0.0158428 0.0158428 0.0155972 0.0155968 0.0151831 0.0151833
          0.0151172 0.015117 0.0145316 0.0145316 0.0140624 0.0140626 0.0134624 0.013463 0.012694 0.0126946 0.0116717 0.0116724
          0.010221 0.0102217 0.00779372 0.00779445 7.7275e-05 7.7274e-05
        </DataArray>
        <DataArray type="Float32" Name="Volume_Fraction_Calcite" NumberOfComponents="1" format="ascii">
          0.00439659 0.00439604 0.00439998 0.00440139 0.00440452 0.0044042 0.00441004 0.00441092 0.00441651 0.00441631 0.00442389 0.00442441
          0.00443284 0.00443315 0.00444305 0.00444351 0.0044548 0.00445485 0.00449176 0.00449178 0.00453056 0.00453058 0.00456575 0.00456578
          0.00459498 0.00459501 0.00461839 0.00461841 0.00463737 0.00463739 0.00465357 0.00465357 0.0046681 0.00466814 0.00469606 0.00469603
          0.0047208 0.00472084 0.0047374 0.00473733 0.0047427 0.00474284 0.00473189 0.00473192 0.00469413 0.00469418 0.00460889 0.00460931
          0.00443769 0.0044375 0.00428286 0.00428275 0.00406243 0.00406257 0.00374753 0.00374762 0.00331071 0.00331098 0.00273964 0.00273988
          0.00202096 0.00202114 0.000988293 0.000988428 0 0
        </DataArray>
        <DataArray type="Float32" Name="Kxx" NumberOfComponents="1" format="ascii">
          1.70223e-10 1.70224e-10 1.70206e-10 1.702e-10 1.70215e-10 1.70218e-10 1.70213e-10 1.70209e-10 1.70225e-10 1.70224e-10 1.70218e-10 1.70213e-10
          1.70221e-10 1.70219e-10 1.70208e-10 1.70203e-10 1.70245e-10 1.70243e-10 1.702e-10 1.70201e-10 1.70165e-10 1.70165e-10 1.70134e-10 1.70135e-10
          1.70112e-10 1.70112e-10 1.70097e-10 1.70098e-10 1.70089e-10 1.70089e-10 1.70084e-10 1.70085e-10 1.70173e-10 1.70173e-10 1.70162e-10 1.70162e-10
          1.70215e-10 1.70216e-10 1.70308e-10 1.70308e-10 1.70459e-10 1.70459e-10 1.70698e-10 1.70698e-10 1.71081e-10 1.71081e-10 1.71757e-10 1.71756e-10
          1.72078e-10 1.72079e-10 1.73085e-10 1.73085e-10 1.74026e-10 1.74026e-10 1.7528e-10 1.75279e-10 1.76941e-10 1.76939e-10 1.79153e-10 1.79151e-10
          1.82193e-10 1.82192e-10 1.87114e-10 1.87113e-10 1.99884e-10 1.99884e-10
        </DataArray>
        <DataArray type="Float32" Name="X_lBrine" NumberOfComponents="1" format="ascii">
          0.968042 0.968042 0.968046 0.968046 0.968037 0.968037 0.968033 0.968033 0.968028 0.968028 0.968024 0.968024
          0.968019 0.968019 0.968014 0.968014 0.96801 0.96801 0.967997 0.967997 0.967985 0.967985 0.967973 0.967973
          0.967961 0.967961 0.967949 0.967949 0.967937 0.967937 0.967926 0.967926 0.967916 0.967916 0.967897 0.967897
          0.967889 0.967889 0.967902 0.967902 0.967952 0.967952 0.968065 0.968065 0.968292 0.968292 0.96872 0.96872
          0.969507 0.969507 0.970166 0.970166 0.971069 0.971069 0.972309 0.972309 0.974011 0.974011 0.97635 0.97635
          0.979574 0.979574 0.984038 0.984038 0.99029 0.99029
        </DataArray>
        <DataArray type="Float32" Name="X_lTotalC" NumberOfComponents="1" format="ascii">
          0.000146703 0.000146704 0.000134554 0.000134556 0.000158903 0.000158905 0.000171162 0.000171164 0.000183485 0.000183487 0.00019588 0.000195883
          0.000208355 0.000208358 0.000220919 0.000220923 0.000233582 0.000233585 0.000268635 0.000268637 0.000303869 0.00030387 0.000339362 0.000339363
          0.000375217 0.000375216 0.000411563 0.000411562 0.000448569 0.000448568 0.000486453 0.000486452 0.000525499 0.000525497 0.000613895 0.000613894
          0.000700215 0.000700214 0.000783546 0.000783545 0.000862333 0.000862332 0.000933994 0.000933993 0.000994235 0.000994234 0.0010359 0.0010359
          0.00104715 0.00104715 0.00103567 0.00103567 0.00100755 0.00100755 0.000957393 0.000957394 0.000877894 0.000877895 0.000759156 0.000759157
          0.00058762 0.000587621 0.000344329 0.00034433 5.81077e-07 5.81077e-07
        </DataArray>
        <DataArray type="Float32" Name="X_lNa" NumberOfComponents="1" format="ascii">
          3.68361e-06 3.68361e-06 3.68363e-06 3.68363e-06 3.68359e-06 3.68359e-06 3.68358e-06 3.68358e-06 3.68356e-06 3.68356e-06 3.68354e-06 3.68354e-06
          3.68352e-06 3.68352e-06 3.68351e-06 3.68351e-06 3.68349e-06 3.68349e-06 3.68344e-06 3.68344e-06 3.68339e-06 3.68339e-06 3.68335e-06 3.68335e-06
          3.6833e-06 3.6833e-06 3.68325e-06 3.68325e-06 3.68321e-06 3.68321e-06 3.68316e-06 3.68316e-06 3.68312e-06 3.68312e-06 3.68303e-06 3.68303e-06
          3.68298e-06 3.68298e-06 3.68299e-06 3.68299e-06 3.68311e-06 3.68311e-06 3.68342e-06 3.68342e-06 3.68407e-06 3.68407e-06 3.68531e-06 3.68531e-06
          3.68761e-06 3.68761e-06 3.68954e-06 3.68954e-06 3.69219e-06 3.69219e-06 3.69584e-06 3.69584e-06 3.70085e-06 3.70085e-06 3.70774e-06 3.70774e-06
          3.71724e-06 3.71724e-06 3.73039e-06 3.73039e-06 3.74881e-06 3.74881e-06
        </DataArray>
        <DataArray type="Float32" Name="X_lCl" NumberOfComponents="1" format="ascii">
          0.00644167 0.00644167 0.0064417 0.0064417 0.00644164 0.00644164 0.00644161 0.00644161 0.00644158 0.00644158 0.00644155 0.00644155
          0.00644152 0.00644152 0.00644149 0.00644149 0.00644146 0.00644146 0.00644138 0.00644138 0.00644129 0.00644129 0.00644121 0.00644121
          0.00644113 0.00644113 0.00644105 0.00644105 0.00644097 0.00644097 0.00644089 0.00644089 0.00644081 0.00644081 0.00644066 0.00644066
          0.00644058 0.00644058 0.0064406 0.0064406 0.00644081 0.00644081 0.00644135 0.00644135 0.00644248 0.00644248 0.00644466 0.00644466
          0.0064487 0.0064487 0.00645209 0.00645209 0.00645676 0.00645676 0.00646316 0.00646316 0.00647196 0.00647196 0.00648405 0.00648405
          0.00650073 0.00650073 0.00652382 0.00652382 0.00655617 0.00655617
        </DataArray>
        <DataArray type="Float32" Name="X_lCa" NumberOfComponents="1" format="ascii">
          4.4874e-07 4.48743e-07 4.11717e-07 4.11721e-07 4.85315e-07 4.85318e-07 5.2142e-07 5.21426e-07 5.57043e-07 5.57048e-07 5.92164e-07 5.92171e-07
          6.2677e-07 6.26777e-07 6.60845e-07 6.60852e-07 6.94377e-07 6.94382e-07 7.82097e-07 7.82101e-07 8.62287e-07 8.6229e-07 9.34256e-07 9.34258e-07
          9.97476e-07 9.97477e-07 1.05165e-06 1.05165e-06 1.09676e-06 1.09676e-06 1.13315e-06 1.13316e-06 1.16161e-06 1.16161e-06 1.18661e-06 1.18661e-06
          1.18556e-06 1.18556e-06 1.18294e-06 1.18294e-06 1.17765e-06 1.17765e-06 1.16808e-06 1.16808e-06 1.15215e-06 1.15215e-06 1.12673e-06 1.12673e-06
          1.08586e-06 1.08586e-06 1.05339e-06 1.05339e-06 1.00959e-06 1.00959e-06 9.49937e-07 9.49937e-07 8.68189e-07 8.68189e-07 7.55847e-07 7.55848e-07
          5.93282e-07 5.93284e-07 3.5136e-07 3.51362e-07 0 0
        </DataArray>
        <DataArray type="Float32" Name="X_lUrea" NumberOfComponents="1" format="ascii">
          0.0192368 0.0192368 0.0192537 0.0192537 0.0192199 0.0192199 0.0192028 0.0192028 0.0191857 0.0191857 0.0191684 0.0191684
          0.0191511 0.0191511 0.0191336 0.0191335 0.0191159 0.0191159 0.0190669 0.0190669 0.0190174 0.0190174 0.0189674 0.0189674
          0.0189165 0.0189165 0.0188646 0.0188646 0.0188113 0.0188113 0.0187562 0.0187562 0.0186987 0.0186987 0.018564 0.018564
          0.0184226 0.0184226 0.0182684 0.0182684 0.0180903 0.0180903 0.0178683 0.0178683 0.0175665 0.0175665 0.0171199 0.0171199
          0.0164114 0.0164114 0.0158545 0.0158545 0.0151112 0.0151112 0.0141112 0.0141112 0.0127567 0.0127567 0.0109109 0.0109109
          0.00838062 0.00838061 0.00488757 0.00488756 0 0
        </DataArray>
        <DataArray type="Float32" Name="X_lTotalNH" NumberOfComponents="1" format="ascii">
          0.00320722 0.00320722 0.00319786 0.00319786 0.00321662 0.00321662 0.00322606 0.00322606 0.00323556 0.00323556 0.00324511 0.00324511
          0.00325472 0.00325472 0.00326441 0.00326441 0.00327416 0.00327417 0.00330118 0.00330119 0.00332835 0.00332835 0.00335573 0.00335573
          0.00338339 0.00338339 0.00341144 0.00341144 0.00344001 0.00344001 0.00346927 0.00346927 0.00349944 0.00349944 0.00356778 0.00356778
          0.00363456 0.00363456 0.00369908 0.00369908 0.00376018 0.00376018 0.00381592 0.00381592 0.00386311 0.00386311 0.00389643 0.00389643
          0.00390712 0.00390712 0.00389989 0.00389989 0.0038804 0.0038804 0.0038447 0.0038447 0.00378745 0.00378745 0.00370143 0.00370143
          0.00357679 0.00357679 0.00339974 0.00339974 0.00314947 0.00314947
        </DataArray>
        <DataArray type="Float32" Name="X_lO2" NumberOfComponents="1" format="ascii">
          7.23756e-06 7.23756e-06 7.28232e-06 7.28232e-06 7.19258e-06 7.19257e-06 7.14736e-06 7.14735e-06 7.10187e-06 7.10186e-06 7.05608e-06 7.05607e-06
          7.00996e-06 7.00995e-06 6.96349e-06 6.96348e-06 6.91662e-06 6.91661e-06 6.78668e-06 6.78668e-06 6.65578e-06 6.65578e-06 6.5236e-06 6.5236e-06
          6.38972e-06 6.38972e-06 6.25362e-06 6.25363e-06 6.11463e-06 6.11464e-06 5.97188e-06 5.97188e-06 5.82422e-06 5.82423e-06 5.48703e-06 5.48704e-06
          5.15244e-06 5.15245e-06 4.82108e-06 4.82108e-06 4.4937e-06 4.49371e-06 4.17117e-06 4.17117e-06 3.85416e-06 3.85416e-06 3.54262e-06 3.54262e-06
          3.23004e-06 3.23004e-06 3.04676e-06 3.04676e-06 2.84144e-06 2.84144e-06 2.60278e-06 2.60278e-06 2.31462e-06 2.31462e-06 1.95363e-06 1.95363e-06
          1.48595e-06 1.48595e-06 8.61365e-07 8.61364e-07 0 0
        </DataArray>
        <DataArray type="Float32" Name="X_lSubstrate" NumberOfComponents="1" format="ascii">
          0.00291454 0.00291454 0.00291466 0.00291466 0.00291442 0.00291442 0.0029143 0.0029143 0.00291417 0.00291417 0.00291405 0.00291405
          0.00291392 0.00291392 0.00291379 0.00291379 0.00291365 0.00291365 0.00291326 0.00291326 0.00291284 0.00291284 0.00291239 0.00291239
          0.00291189 0.00291189 0.00291133 0.00291133 0.00291069 0.00291069 0.00290996 0.00290996 0.0029091 0.0029091 0.00290649 0.00290649
          0.00290247 0.00290247 0.00289592 0.00289592 0.00288488 0.00288488 0.00286584 0.00286584 0.00283256 0.00283256 0.00277388 0.00277388
          0.00266986 0.00266986 0.00258405 0.00258405 0.00246696 0.00246696 0.002307 0.002307 0.00208802 0.00208802 0.00178753 0.00178753
          0.00137386 0.00137386 0.000801506 0.000801506 0 0
        </DataArray>
        <DataArray type="Float32" Name="X_lSuspended_Biomass" NumberOfComponents="1" format="ascii">
          5.60026e-08 5.60033e-08 5.13462e-08 5.13469e-08 6.06813e-08 6.06821e-08 6.53843e-08 6.53854e-08 7.01143e-08 7.01156e-08 7.48744e-08 7.4876e-08
          7.96676e-08 7.96692e-08 8.44972e-08 8.44989e-08 8.93671e-08 8.93687e-08 1.02864e-07 1.02865e-07 1.16452e-07 1.16453e-07 1.30163e-07 1.30163e-07
          1.44035e-07 1.44034e-07 1.58119e-07 1.58118e-07 1.7248e-07 1.72479e-07 1.87201e-07 1.87201e-07 2.02392e-07 2.02392e-07 2.36891e-07 2.3689e-07
          2.70684e-07 2.70683e-07 3.03393e-07 3.03393e-07 3.34396e-07 3.34396e-07 3.62662e-07 3.62662e-07 3.86476e-07 3.86476e-07 4.02968e-07 4.02968e-07
          4.07531e-07 4.07531e-07 4.03205e-07 4.03205e-07 3.92464e-07 3.92464e-07 3.73211e-07 3.73211e-07 3.42586e-07 3.42586e-07 2.96671e-07 2.96672e-07
          2.30039e-07 2.3004e-07 1.35026e-07 1.35026e-07 0 0
        </DataArray>
        <DataArray type="Float32" Name="X_lNH4" NumberOfComponents="1" format="ascii">
          0.00333121 0.00333121 0.00332631 0.00332631 0.00333615 0.00333615 0.00334111 0.00334111 0.0033461 0.0033461 0.00335112 0.00335113
          0.00335619 0.00335619 0.00336129 0.0033613 0.00336644 0.00336644 0.00338071 0.00338071 0.00339508 0.00339508 0.00340959 0.00340959
          0.00342425 0.00342425 0.00343915 0.00343915 0.00345436 0.00345436 0.00346992 0.00346992 0.00348599 0.00348599 0.0035225 0.0035225
          0.00355824 0.00355824 0.0035929 0.0035929 0.0036258 0.0036258 0.00365583 0.00365583 0.0036816 0.0036816 0.00370008 0.00370008
          0.00370684 0.00370684 0.00370381 0.00370381 0.00369448 0.00369448 0.00367689 0.00367689 0.00364828 0.00364828 0.0036052 0.0036052
          0.00354262 0.00354262 0.00345409 0.00345409 0.00333307 0.00333307
        </DataArray>
        <DataArray type="Float32" Name="X_lHCO3" NumberOfComponents="1" format="ascii">
          0.00019158 0.000191582 0.000174937 0.000174939 0.000208307 0.000208309 0.000225123 0.000225126 0.000242035 0.000242038 0.000259052 0.000259056
          0.000276183 0.000276187 0.000293438 0.000293442 0.000310831 0.000310835 0.00035898 0.000358982 0.000407373 0.000407374 0.000456107 0.000456107
          0.00050532 0.00050532 0.000555184 0.000555183 0.000605927 0.000605925 0.000657846 0.000657844 0.000711325 0.000711323 0.000832274 0.000832273
          0.000950219 0.000950217 0.00106392 0.00106392 0.00117129 0.00117129 0.00126884 0.00126884 0.00135076 0.00135076 0.00140737 0.00140737
          0.00142266 0.00142266 0.00140706 0.00140706 0.00136886 0.00136886 0.00130067 0.00130067 0.00119247 0.00119248 0.00103063 0.00103063
          0.000796266 0.000796267 0.000462788 0.000462789 3.37056e-07 3.37056e-07
        </DataArray>
        <DataArray type="Float32" Name="X_lCO3" NumberOfComponents="1" format="ascii">
          3.36254e-07 3.36282e-07 2.84076e-07 2.84079e-07 3.92985e-07 3.92988e-07 4.54318e-07 4.54324e-07 5.20308e-07 5.20315e-07 5.91095e-07 5.91103e-07
          6.66754e-07 6.66764e-07 7.47358e-07 7.47369e-07 8.33169e-07 8.3318e-07 1.09393e-06 1.09393e-06 1.39029e-06 1.39029e-06 1.72273e-06 1.72273e-06
          2.0932e-06 2.09319e-06 2.50307e-06 2.50307e-06 2.95525e-06 2.95524e-06 3.45491e-06 3.4549e-06 4.00753e-06 4.00752e-06 5.39538e-06 5.39537e-06
          6.93026e-06 6.93025e-06 8.57256e-06 8.57255e-06 1.02668e-05 1.02667e-05 1.19266e-05 1.19265e-05 1.33977e-05 1.33976e-05 1.44573e-05 1.44573e-05
          1.47409e-05 1.47409e-05 1.44325e-05 1.44325e-05 1.37008e-05 1.37008e-05 1.24411e-05 1.24411e-05 1.05609e-05 1.05609e-05 8.01229e-06 8.01231e-06
          4.90911e-06 4.90912e-06 1.74651e-06 1.74651e-06 2.55591e-11 2.55591e-11
        </DataArray>
        <DataArray type="Float32" Name="X_lCO2" NumberOfComponents="1" format="ascii">
          8.30836e-06 8.3079e-06 8.19934e-06 8.19942e-06 8.40525e-06 8.40533e-06 8.49243e-06 8.49253e-06 8.57194e-06 8.57206e-06 8.64435e-06 8.64448e-06
          8.71112e-06 8.71125e-06 8.77365e-06 8.77378e-06 8.83125e-06 8.83137e-06 8.97298e-06 8.97303e-06 9.09358e-06 9.0936e-06 9.20105e-06 9.20105e-06
          9.29607e-06 9.29606e-06 9.38478e-06 9.38476e-06 9.4691e-06 9.46908e-06 9.54786e-06 9.54784e-06 9.62452e-06 9.62449e-06 9.78704e-06 9.78702e-06
          9.932e-06 9.93198e-06 1.00658e-05 1.00658e-05 1.01866e-05 1.01866e-05 1.02902e-05 1.02901e-05 1.03809e-05 1.03809e-05 1.04428e-05 1.04428e-05
          1.04648e-05 1.04648e-05 1.04545e-05 1.04545e-05 1.04221e-05 1.04221e-05 1.03611e-05 1.03611e-05 1.02578e-05 1.02578e-05 1.00973e-05 1.00973e-05
          9.83394e-06 9.83395e-06 9.33233e-06 9.33234e-06 3.38012e-07 3.38012e-07
        </DataArray>
        <DataArray type="Float32" Name="X_lH" NumberOfComponents="1" format="ascii">
          2.69313e-11 2.69295e-11 2.91041e-11 2.91041e-11 2.50595e-11 2.50595e-11 2.34299e-11 2.34299e-11 2.19985e-11 2.19985e-11 2.07286e-11 2.07286e-11
          1.95945e-11 1.95945e-11 1.8576e-11 1.8576e-11 1.7653e-11 1.7653e-11 1.55334e-11 1.55334e-11 1.38745e-11 1.38745e-11 1.25404e-11 1.25404e-11
          1.14375e-11 1.14375e-11 1.05108e-11 1.05108e-11 9.71802e-12 9.71802e-12 9.0262e-12 9.0262e-12 8.41513e-12 8.41513e-12 7.31413e-12 7.31413e-12
          6.50128e-12 6.50128e-12 5.88485e-12 5.88485e-12 5.40984e-12 5.40984e-12 5.04514e-12 5.04514e-12 4.78171e-12 4.78171e-12 4.61801e-12 4.61801e-12
          4.5803e-12 4.5803e-12 4.6285e-12 4.6285e-12 4.74563e-12 4.74563e-12 4.96907e-12 4.96907e-12 5.37163e-12 5.37163e-12 6.12688e-12 6.12688e-12
          7.73874e-12 7.73874e-12 1.26702e-11 1.26702e-11 6.32454e-10 6.32454e-10
        </DataArray>
        <DataArray type="Float32" Name="X_lOH" NumberOfComponents="1" format="ascii">
          6.07869e-06 6.07911e-06 5.62488e-06 5.62488e-06 6.53274e-06 6.53274e-06 6.98711e-06 6.98711e-06 7.44175e-06 7.44175e-06 7.89766e-06 7.89766e-06
          8.35477e-06 8.35477e-06 8.81285e-06 8.81285e-06 9.27368e-06 9.27368e-06 1.05391e-05 1.05391e-05 1.17993e-05 1.17993e-05 1.30546e-05 1.30546e-05
          1.43135e-05 1.43135e-05 1.55755e-05 1.55755e-05 1.68462e-05 1.68462e-05 1.81375e-05 1.81375e-05 1.94548e-05 1.94548e-05 2.23839e-05 2.23839e-05
          2.51836e-05 2.51836e-05 2.78235e-05 2.78235e-05 3.02702e-05 3.02702e-05 3.24654e-05 3.24654e-05 3.42668e-05 3.42668e-05 3.5505e-05 3.5505e-05
          3.58396e-05 3.58396e-05 3.55009e-05 3.55009e-05 3.46706e-05 3.46706e-05 3.31718e-05 3.31718e-05 3.0762e-05 3.0762e-05 2.70618e-05 2.70618e-05
          2.15255e-05 2.15255e-05 1.32323e-05 1.32323e-05 2.67481e-07 2.67481e-07
        </DataArray>
        <DataArray type="Float32" Name="X_gBrine" NumberOfComponents="1" format="ascii">
          0.0111181 0.0111181 0.0111112 0.0111112 0.011125 0.011125 0.0111319 0.0111319 0.0111388 0.0111388 0.0111458 0.0111458
          0.0111527 0.0111527 0.0111597 0.0111597 0.0111667 0.0111667 0.0111876 0.0111876 0.0112087 0.0112087 0.0112298 0.0112298
          0.011251 0.011251 0.0112723 0.0112723 0.0112936 0.0112936 0.0113151 0.0113151 0.0113366 0.0113366 0.0113959 0.0113959
          0.0114558 0.0114558 0.0115164 0.0115164 0.0115776 0.0115776 0.0116395 0.0116395 0.011702 0.011702 0.0117651 0.0117651
          0.011829 0.011829 0.0118587 0.0118587 0.0118887 0.0118887 0.0119187 0.0119187 0.0119488 0.0119488 0.011979 0.011979
          0.0120093 0.0120093 0.0120396 0.0120396 0.0120698 0.0120698
        </DataArray>
        <DataArray type="Float32" Name="X_gTotalC" NumberOfComponents="1" format="ascii">
          0.988882 0.988882 0.988889 0.988889 0.988875 0.988875 0.988868 0.988868 0.988861 0.988861 0.988854 0.988854
          0.988847 0.988847 0.98884 0.98884 0.988833 0.988833 0.988812 0.988812 0.988791 0.988791 0.98877 0.98877
          0.988749 0.988749 0.988728 0.988728 0.988706 0.988706 0.988685 0.988685 0.988663 0.988663 0.988604 0.988604
          0.988544 0.988544 0.988484 0.988484 0.988422 0.988422 0.988361 0.988361 0.988298 0.988298 0.988235 0.988235
          0.988171 0.988171 0.988141 0.988141 0.988111 0.988111 0.988081 0.988081 0.988051 0.988051 0.988021 0.988021
          0.987991 0.987991 0.98796 0.98796 0.98793 0.98793
        </DataArray>
        <DataArray type="Float32" Name="X_gNa" NumberOfComponents="1" format="ascii">
          0 0 0 0 0 0 0 0 0 0 0 0
          0 0 0 0 0 0 0 0 0 0 0 0
          0 0 0 0 0 0 0 0 0 0 0 0
          0 0 0 0 0 0 0 0 0 0 0 0
          0 0 0 0 0 0 0 0 0 0 0 0
          0 0 0 0 0 0
        </DataArray>
        <DataArray type="Float32" Name="X_gCl" NumberOfComponents="1" format="ascii">
          0 0 0 0 0 0 0 0 0 0 0 0
          0 0 0 0 0 0 0 0 0 0 0 0
          0 0 0 0 0 0 0 0 0 0 0 0
          0 0 0 0 0 0 0 0 0 0 0 0
          0 0 0 0 0 0 0 0 0 0 0 0
          0 0 0 0 0 0
        </DataArray>
        <DataArray type="Float32" Name="X_gCa" NumberOfComponents="1" format="ascii">
          0 0 0 0 0 0 0 0 0 0 0 0
          0 0 0 0 0 0 0 0 0 0 0 0
          0 0 0 0 0 0 0 0 0 0 0 0
          0 0 0 0 0 0 0 0 0 0 0 0
          0 0 0 0 0 0 0 0 0 0 0 0
          0 0 0 0 0 0
        </DataArray>
        <DataArray type="Float32" Name="X_gUrea" NumberOfComponents="1" format="ascii">
          0 0 0 0 0 0 0 0 0 0 0 0
          0 0 0 0 0 0 0 0 0 0 0 0
          0 0 0 0 0 0 0 0 0 0 0 0
          0 0 0 0 0 0 0 0 0 0 0 0
          0 0 0 0 0 0 0 0 0 0 0 0
          0 0 0 0 0 0
        </DataArray>
        <DataArray type="Float32" Name="X_gTotalNH" NumberOfComponents="1" format="ascii">
          0 0 0 0 0 0 0 0 0 0 0 0
          0 0 0 0 0 0 0 0 0 0 0 0
          0 0 0 0 0 0 0 0 0 0 0 0
          0 0 0 0 0 0 0 0 0 0 0 0
          0 0 0 0 0 0 0 0 0 0 0 0
          0 0 0 0 0 0
        </DataArray>
        <DataArray type="Float32" Name="X_gO2" NumberOfComponents="1" format="ascii">
          0 0 0 0 0 0 0 0 0 0 0 0
          0 0 0 0 0 0 0 0 0 0 0 0
          0 0 0 0 0 0 0 0 0 0 0 0
          0 0 0 0 0 0 0 0 0 0 0 0
          0 0 0 0 0 0 0 0 0 0 0 0
          0 0 0 0 0 0
        </DataArray>
        <DataArray type="Float32" Name="X_gSubstrate" NumberOfComponents="1" format="ascii">
          0 0 0 0 0 0 0 0 0 0 0 0
          0 0 0 0 0 0 0 0 0 0 0 0
          0 0 0 0 0 0 0 0 0 0 0 0
          0 0 0 0 0 0 0 0 0 0 0 0
          0 0 0 0 0 0 0 0 0 0 0 0
          0 0 0 0 0 0
        </DataArray>
        <DataArray type="Float32" Name="X_gSuspended_Biomass" NumberOfComponents="1" format="ascii">
          0 0 0 0 0 0 0 0 0 0 0 0
          0 0 0 0 0 0 0 0 0 0 0 0
          0 0 0 0 0 0 0 0 0 0 0 0
          0 0 0 0 0 0 0 0 0 0 0 0
          0 0 0 0 0 0 0 0 0 0 0 0
          0 0 0 0 0 0
        </DataArray>
        <DataArray type="Float32" Name="X_gNH4" NumberOfComponents="1" format="ascii">
          0 0 0 0 0 0 0 0 0 0 0 0
          0 0 0 0 0 0 0 0 0 0 0 0
          0 0 0 0 0 0 0 0 0 0 0 0
          0 0 0 0 0 0 0 0 0 0 0 0
          0 0 0 0 0 0 0 0 0 0 0 0
          0 0 0 0 0 0
        </DataArray>
        <DataArray type="Float32" Name="X_gHCO3" NumberOfComponents="1" format="ascii">
          0 0 0 0 0 0 0 0 0 0 0 0
          0 0 0 0 0 0 0 0 0 0 0 0
          0 0 0 0 0 0 0 0 0 0 0 0
          0 0 0 0 0 0 0 0 0 0 0 0
          0 0 0 0 0 0 0 0 0 0 0 0
          0 0 0 0 0 0
        </DataArray>
        <DataArray type="Float32" Name="X_gCO3" NumberOfComponents="1" format="ascii">
          0 0 0 0 0 0 0 0 0 0 0 0
          0 0 0 0 0 0 0 0 0 0 0 0
          0 0 0 0 0 0 0 0 0 0 0 0
          0 0 0 0 0 0 0 0 0 0 0 0
          0 0 0 0 0 0 0 0 0 0 0 0
          0 0 0 0 0 0
        </DataArray>
        <DataArray type="Float32" Name="X_gCO2" NumberOfComponents="1" format="ascii">
          0.988882 0.988882 0.988889 0.988889 0.988875 0.988875 0.988868 0.988868 0.988861 0.988861 0.988854 0.988854
          0.988847 0.988847 0.98884 0.98884 0.988833 0.988833 0.988812 0.988812 0.988791 0.988791 0.98877 0.98877
          0.988749 0.988749 0.988728 0.988728 0.988706 0.988706 0.988685 0.988685 0.988663 0.988663 0.988604 0.988604
          0.988544 0.988544 0.988484 0.988484 0.988422 0.988422 0.988361 0.988361 0.988298 0.988298 0.988235 0.988235
          0.988171 0.988171 0.988141 0.988141 0.988111 0.988111 0.988081 0.988081 0.988051 0.988051 0.988021 0.988021
          0.987991 0.987991 0.98796 0.98796 0.98793 0.98793
        </DataArray>
        <DataArray type="Float32" Name="X_gH" NumberOfComponents="1" format="ascii">
          0 0 0 0 0 0 0 0 0 0 0 0
          0 0 0 0 0 0 0 0 0 0 0 0
          0 0 0 0 0 0 0 0 0 0 0 0
          0 0 0 0 0 0 0 0 0 0 0 0
          0 0 0 0 0 0 0 0 0 0 0 0
          0 0 0 0 0 0
        </DataArray>
        <DataArray type="Float32" Name="X_gOH" NumberOfComponents="1" format="ascii">
          0 0 0 0 0 0 0 0 0 0 0 0
          0 0 0 0 0 0 0 0 0 0 0 0
          0 0 0 0 0 0 0 0 0 0 0 0
          0 0 0 0 0 0 0 0 0 0 0 0
          0 0 0 0 0 0 0 0 0 0 0 0
          0 0 0 0 0 0
        </DataArray>
        <DataArray type="Float32" Name="Molarity_Brine" NumberOfComponents="1" format="ascii">
          53810.1 53810.1 53810.2 53810.2 53810 53810 53809.9 53809.9 53809.7 53809.7 53809.6 53809.6
          53809.5 53809.5 53809.4 53809.4 53809.2 53809.2 53808.9 53808.9 53808.6 53808.6 53808.3 53808.3
          53808 53808 53807.7 53807.7 53807.4 53807.4 53807.2 53807.2 53807 53807 53806.9 53806.9
          53807.3 53807.3 53808.9 53808.9 53812.5 53812.5 53819.6 53819.6 53832.8 53832.8 53857.1 53857.1
          53901.1 53901.1 53937.7 53937.7 53987.8 53987.8 54056.4 54056.4 54150.5 54150.5 54279.7 54279.7
          54457.8 54457.8 54704.1 54704.1 55049.2 55049.2
        </DataArray>
        <DataArray type="Float32" Name="Molarity_TotalC" NumberOfComponents="1" format="ascii">
          3.33883 3.33886 3.06234 3.06237 3.61651 3.61655 3.89551 3.89556 4.17598 4.17604 4.4581 4.45817
          4.74204 4.74211 5.028 5.02808 5.31621 5.31628 6.11404 6.11408 6.916 6.91602 7.72388 7.72389
          8.53999 8.53998 9.36729 9.36727 10.2096 10.2096 11.072 11.0719 11.9608 11.9607 13.973 13.973
          15.938 15.938 17.835 17.835 19.6286 19.6286 21.2601 21.2601 22.6316 22.6316 23.5802 23.5802
          23.8365 23.8365 23.575 23.575 22.935 22.935 21.7931 21.7931 19.9833 19.9833 17.2802 17.2802
          13.3753 13.3754 7.83733 7.83734 0.0132254 0.0132254
        </DataArray>
        <DataArray type="Float32" Name="Molarity_Na" NumberOfComponents="1" format="ascii">
          0.160453 0.160453 0.160453 0.160453 0.160452 0.160452 0.160452 0.160452 0.160452 0.160452 0.160451 0.160451
          0.160451 0.160451 0.16045 0.16045 0.16045 0.16045 0.160449 0.160449 0.160448 0.160448 0.160447 0.160447
          0.160446 0.160446 0.160445 0.160445 0.160444 0.160444 0.160444 0.160444 0.160443 0.160443 0.160442 0.160442
          0.160442 0.160442 0.160445 0.160445 0.160453 0.160453 0.160469 0.160469 0.160499 0.160499 0.160554 0.160554
          0.160655 0.160655 0.160739 0.160739 0.160855 0.160855 0.161013 0.161013 0.161229 0.161229 0.161527 0.161527
          0.161937 0.161937 0.162505 0.162505 0.1633 0.1633
        </DataArray>
        <DataArray type="Float32" Name="Molarity_Cl" NumberOfComponents="1" format="ascii">
          181.951 181.951 181.951 181.951 181.95 181.95 181.95 181.95 181.95 181.95 181.949 181.949
          181.949 181.949 181.948 181.948 181.948 181.948 181.947 181.947 181.946 181.946 181.944 181.944
          181.943 181.943 181.942 181.942 181.941 181.941 181.941 181.941 181.94 181.94 181.939 181.939
          181.939 181.939 181.943 181.943 181.951 181.951 181.969 181.969 182.003 182.003 182.067 182.067
          182.182 182.182 182.277 182.277 182.409 182.409 182.589 182.589 182.835 182.835 183.174 183.174
          183.641 183.641 184.288 184.288 185.193 185.193
        </DataArray>
        <DataArray type="Float32" Name="Molarity_Ca" NumberOfComponents="1" format="ascii">
          0.0112124 0.0112124 0.0102873 0.0102874 0.0121263 0.0121264 0.0130284 0.0130286 0.0139185 0.0139187 0.0147962 0.0147963
          0.0156609 0.015661 0.0165123 0.0165125 0.0173502 0.0173504 0.0195422 0.0195423 0.021546 0.0215461 0.0233445 0.0233446
          0.0249243 0.0249244 0.0262782 0.0262782 0.0274056 0.0274056 0.0283152 0.0283152 0.0290265 0.0290265 0.0296518 0.0296518
          0.0296258 0.0296258 0.029561 0.029561 0.0294291 0.0294291 0.0291905 0.0291905 0.0287928 0.0287928 0.0281578 0.0281578
          0.0271364 0.0271364 0.0263249 0.0263249 0.0252305 0.0252305 0.0237394 0.0237394 0.0216963 0.0216963 0.0188885 0.0188886
          0.0148257 0.0148258 0.00877998 0.00878003 0 0
        </DataArray>
        <DataArray type="Float32" Name="Molarity_Urea" NumberOfComponents="1" format="ascii">
          317.884 317.884 318.162 318.162 317.605 317.605 317.324 317.324 317.042 317.042 316.757 316.757
          316.471 316.471 316.182 316.182 315.891 315.891 315.083 315.083 314.268 314.268 313.443 313.443
          312.605 312.605 311.75 311.75 310.871 310.871 309.962 309.962 309.014 309.014 306.794 306.794
          304.462 304.462 301.919 301.919 298.979 298.979 295.315 295.315 290.33 290.33 282.952 282.952
          271.243 271.243 262.038 262.038 249.752 249.752 233.223 233.223 210.835 210.835 180.326 180.326
          138.505 138.505 80.7732 80.7731 0 0
        </DataArray>
        <DataArray type="Float32" Name="Molarity_TotalNH" NumberOfComponents="1" format="ascii">
          188.581 188.581 188.03 188.03 189.134 189.134 189.689 189.69 190.248 190.248 190.81 190.81
          191.376 191.376 191.946 191.946 192.52 192.52 194.11 194.11 195.709 195.709 197.32 197.32
          198.948 198.948 200.599 200.599 202.28 202.28 204.002 204.002 205.778 205.778 209.8 209.8
          213.73 213.73 217.528 217.528 221.124 221.124 224.405 224.405 227.183 227.183 229.145 229.145
          229.775 229.775 229.349 229.349 228.203 228.203 226.102 226.102 222.733 222.733 217.671 217.671
          210.336 210.336 199.919 199.919 185.193 185.193
        </DataArray>
        <DataArray type="Float32" Name="Molarity_O2" NumberOfComponents="1" format="ascii">
          0.226491 0.226491 0.227891 0.227891 0.225084 0.225084 0.223669 0.223669 0.222246 0.222246 0.220814 0.220813
          0.219371 0.219371 0.217917 0.217917 0.216451 0.216451 0.212386 0.212386 0.208291 0.208291 0.204156 0.204156
          0.199967 0.199968 0.19571 0.19571 0.191361 0.191361 0.186895 0.186895 0.182275 0.182276 0.171726 0.171726
          0.161257 0.161257 0.150888 0.150888 0.140644 0.140645 0.130551 0.130552 0.120631 0.120631 0.110881 0.110881
          0.101098 0.101098 0.0953617 0.0953617 0.0889349 0.0889349 0.0814648 0.0814648 0.0724446 0.0724446 0.0611453 0.0611453
          0.0465067 0.0465067 0.0269578 0.0269578 0 0
        </DataArray>
        <DataArray type="Float32" Name="Molarity_Substrate" NumberOfComponents="1" format="ascii">
          16.2002 16.2002 16.2008 16.2008 16.1996 16.1996 16.1989 16.1989 16.1983 16.1983 16.1976 16.1976
          16.1969 16.1969 16.1962 16.1962 16.1955 16.1955 16.1935 16.1935 16.1912 16.1912 16.1888 16.1888
          16.1862 16.1862 16.1832 16.1832 16.1797 16.1797 16.1758 16.1758 16.1711 16.1711 16.1569 16.1569
          16.1348 16.1348 16.0986 16.0986 16.0375 16.0375 15.9319 15.9319 15.7471 15.7471 15.421 15.421
          14.8428 14.8428 14.3657 14.3657 13.7148 13.7148 12.8254 12.8254 11.6079 11.6079 9.93722 9.93722
          7.63738 7.63738 4.45549 4.45549 0 0
        </DataArray>
        <DataArray type="Float32" Name="Molarity_Suspended_Biomass" NumberOfComponents="1" format="ascii">
          5.60811e-05 5.60818e-05 5.1418e-05 5.14187e-05 6.07665e-05 6.07673e-05 6.54763e-05 6.54774e-05 7.02131e-05 7.02144e-05 7.49801e-05 7.49816e-05
          7.97802e-05 7.97818e-05 8.46169e-05 8.46186e-05 8.94938e-05 8.94955e-05 0.00010301 0.000103011 0.000116619 0.000116619 0.00013035 0.00013035
          0.000144243 0.000144243 0.000158348 0.000158348 0.000172731 0.000172731 0.000187476 0.000187475 0.000202691 0.00020269 0.000237244 0.000237244
          0.000271092 0.000271092 0.000303856 0.000303855 0.000334911 0.00033491 0.000363225 0.000363225 0.000387081 0.000387081 0.000403602 0.000403602
          0.000408175 0.000408175 0.000403842 0.000403842 0.000393083 0.000393083 0.000373797 0.000373797 0.000343121 0.000343121 0.00029713 0.00029713
          0.00023039 0.00023039 0.000135228 0.000135228 0 0
        </DataArray>
        <DataArray type="Float32" Name="Molarity_NH4" NumberOfComponents="1" format="ascii">
          184.926 184.926 184.654 184.654 185.2 185.2 185.476 185.476 185.754 185.754 186.033 186.033
          186.315 186.315 186.599 186.599 186.885 186.885 187.678 187.678 188.477 188.477 189.284 189.284
          190.099 190.099 190.928 190.928 191.774 191.774 192.639 192.639 193.532 193.532 195.563 195.563
          197.55 197.55 199.478 199.477 201.307 201.307 202.977 202.977 204.411 204.411 205.438 205.438
          205.815 205.815 205.647 205.647 205.128 205.128 204.15 204.15 202.56 202.56 200.165 200.165
          196.686 196.686 191.765 191.765 185.037 185.037
        </DataArray>
        <DataArray type="Float32" Name="Molarity_HCO3" NumberOfComponents="1" format="ascii">
          3.14417 3.14421 2.87103 2.87105 3.41871 3.41874 3.6947 3.69475 3.97227 3.97232 4.25156 4.25162
          4.53272 4.53278 4.81592 4.81599 5.10139 5.10145 5.89165 5.89168 6.68593 6.68595 7.48582 7.48582
          8.29359 8.29358 9.11204 9.11203 9.94493 9.94491 10.7972 10.7971 11.675 11.675 13.6604 13.6603
          15.5965 15.5964 17.4631 17.463 19.2257 19.2257 20.8271 20.8271 22.172 22.172 23.1015 23.1015
          23.3525 23.3525 23.0965 23.0965 22.4694 22.4694 21.3499 21.3499 19.5738 19.5738 16.9169 16.9169
          13.0698 13.0698 7.59587 7.59588 0.00553194 0.00553194
        </DataArray>
        <DataArray type="Float32" Name="Molarity_CO3" NumberOfComponents="1" format="ascii">
          0.00561124 0.00561169 0.0047405 0.00474055 0.00655793 0.006558 0.00758146 0.00758155 0.00868269 0.00868281 0.00986397 0.00986411
          0.0111266 0.0111267 0.0124717 0.0124719 0.0139037 0.0139039 0.0182553 0.0182554 0.0232011 0.0232012 0.028749 0.028749
          0.0349317 0.0349316 0.0417721 0.041772 0.0493185 0.0493184 0.0576575 0.0576573 0.0668803 0.0668802 0.0900433 0.0900432
          0.115661 0.115661 0.143072 0.143072 0.17135 0.17135 0.199054 0.199054 0.223609 0.223609 0.241297 0.241297
          0.246031 0.246031 0.240885 0.240885 0.228671 0.228671 0.207645 0.207645 0.176263 0.176263 0.133724 0.133724
          0.0819305 0.0819306 0.0291474 0.0291474 4.26535e-07 4.26535e-07
        </DataArray>
        <DataArray type="Float32" Name="Molarity_CO2" NumberOfComponents="1" format="ascii">
          0.189091 0.189081 0.186609 0.186611 0.191297 0.191298 0.193281 0.193284 0.195091 0.195094 0.19674 0.196743
          0.19826 0.198263 0.199684 0.199686 0.200995 0.200998 0.204222 0.204223 0.206968 0.206969 0.209416 0.209416
          0.21158 0.21158 0.2136 0.2136 0.215521 0.215521 0.217315 0.217315 0.219062 0.219061 0.222765 0.222764
          0.226068 0.226067 0.229117 0.229116 0.231871 0.23187 0.23423 0.23423 0.236299 0.236299 0.23771 0.23771
          0.238211 0.238211 0.237978 0.237978 0.23724 0.23724 0.235849 0.235849 0.233496 0.233496 0.229839 0.229839
          0.223839 0.223839 0.212415 0.212415 0.00769319 0.00769319
        </DataArray>
        <DataArray type="Float32" Name="Molarity_H" NumberOfComponents="1" format="ascii">
          2.67566e-05 2.67548e-05 2.89152e-05 2.89152e-05 2.4897e-05 2.4897e-05 2.3278e-05 2.3278e-05 2.1856e-05 2.1856e-05 2.05944e-05 2.05944e-05
          1.94677e-05 1.94677e-05 1.84558e-05 1.84558e-05 1.75388e-05 1.75388e-05 1.5433e-05 1.5433e-05 1.37849e-05 1.37849e-05 1.24595e-05 1.24595e-05
          1.13638e-05 1.13638e-05 1.04431e-05 1.04431e-05 9.65554e-06 9.65554e-06 8.96824e-06 8.96824e-06 8.36115e-06 8.36115e-06 7.26734e-06 7.26734e-06
          6.45979e-06 6.45979e-06 5.84739e-06 5.84739e-06 5.37549e-06 5.37549e-06 5.01317e-06 5.01317e-06 4.75147e-06 4.75147e-06 4.58885e-06 4.58885e-06
          4.5514e-06 4.5514e-06 4.59929e-06 4.59929e-06 4.71567e-06 4.71567e-06 4.93767e-06 4.93767e-06 5.33763e-06 5.33763e-06 6.08801e-06 6.08801e-06
          7.68947e-06 7.68947e-06 1.25892e-05 1.25892e-05 0.000628379 0.000628379
        </DataArray>
        <DataArray type="Float32" Name="Molarity_OH" NumberOfComponents="1" format="ascii">
          0.000358084 0.000358108 0.00033135 0.00033135 0.000384832 0.000384832 0.000411599 0.000411599 0.000438382 0.000438382 0.00046524 0.00046524
          0.000492169 0.000492169 0.000519155 0.000519155 0.000546303 0.000546303 0.000620853 0.000620853 0.000695093 0.000695093 0.000769049 0.000769049
          0.000843216 0.000843216 0.000917572 0.000917572 0.000992436 0.000992436 0.00106852 0.00106852 0.00114613 0.00114613 0.00131871 0.00131871
          0.00148367 0.00148367 0.00163923 0.00163923 0.00178341 0.00178341 0.00191276 0.00191276 0.00201892 0.00201892 0.0020919 0.0020919
          0.00211161 0.00211161 0.00209166 0.00209166 0.00204274 0.00204274 0.00195441 0.00195441 0.00181242 0.00181242 0.00159439 0.00159439
          0.00126818 0.00126818 0.000779559 0.000779559 1.57575e-05 1.57575e-05
        </DataArray>
        <DataArray type="Float32" Name="Sum_charges" NumberOfComponents="1" format="ascii">
          0.00253042 0.00230344 0.00244181 0.00247301 0.00247729 0.00251232 0.00240744 0.00245429 0.00252912 0.0025852 0.00242307 0.00248782
          0.00231692 0.00238573 0.00255603 0.0026274 0.00226928 0.00233537 0.0023997 0.00243851 0.00208682 0.00210638 0.00287841 0.00288138
          0.00182252 0.00181478 0.00183052 0.00181474 0.00295251 0.00293018 0.00208777 0.00206117 0.00139648 0.00136781 0.00228138 0.00225706
          0.00131956 0.00129634 0.00361318 0.00359601 0.00507681 0.00505818 -0.000267937 -0.000275537 0.00404948 0.00403645 0.00245923 0.00246112
          0.00149737 0.00149336 0.0024077 0.00240736 0.00211646 0.00212192 0.00293866 0.00295065 0.000976688 0.000992745 0.00375227 0.00377082
          0.00131061 0.00132767 0.00202986 0.00204309 0.00246913 0.00246913
        </DataArray>
        <DataArray type="Float32" Name="Vx" NumberOfComponents="1" format="ascii">
          2.87315e-10 2.87314e-10 5.92096e-10 5.9209e-10 1.0806e-09 1.08061e-09 1.82529e-09 1.82528e-09 1.50853e-09 1.50851e-09 9.30427e-10 9.30413e-10
          3.10662e-10 3.10657e-10 -5.71555e-10 -5.71544e-10 -1.30076e-09 -1.30075e-09 -9.29436e-10 -9.29434e-10 -3.15164e-10 -3.15164e-10 -1.08084e-10 -1.08084e-10
          -4.24386e-11 -4.24387e-11 -5.65176e-11 -5.65177e-11 -5.39175e-11 -5.39176e-11 6.66237e-13 6.66234e-13 3.92693e-11 3.92693e-11 2.6643e-11 2.66431e-11
          1.80743e-11 1.80743e-11 2.32701e-11 2.32701e-11 4.51742e-11 4.51742e-11 6.82949e-12 6.8295e-12 8.23088e-11 8.23088e-11 -1.85462e-11 -1.85462e-11
          -8.44642e-11 -8.44642e-11 1.95993e-10 1.95993e-10 2.44379e-10 2.44378e-10 1.83478e-10 1.83478e-10 1.24921e-10 1.2492e-10 2.40611e-11 2.4061e-11
          -9.22639e-11 -9.22636e-11 -2.01659e-10 -2.01658e-10 -1.20589e-10 -1.20589e-10
        </DataArray>
        <DataArray type="Float32" Name="Vy" NumberOfComponents="1" format="ascii">
          0.000348229 0.000348229 0.000348221 0.000348221 0.000348229 0.000348228 0.00034823 0.000348228 0.000348238 0.000348234 0.000348237 0.000348233
          0.000348243 0.000348238 0.000348238 0.000348233 0.000348264 0.000348261 0.000348252 0.000348251 0.00034826 0.00034826 0.000348267 0.000348267
          0.000348274 0.000348274 0.000348281 0.000348282 0.000348288 0.000348289 0.000348276 0.000348277 0.000348335 0.000348336 0.000348305 0.000348305
          0.000348331 0.000348331 0.000348338 0.000348338 0.000348334 0.000348334 0.00034831 0.00034831 0.000348234 0.000348234 0.000348389 0.000348389
          0.000348093 0.000348094 0.000347985 0.000347985 0.000347712 0.000347712 0.000347441 0.00034744 0.000347063 0.000347062 0.000346527 0.000346526
          0.000345649 0.000345648 0.000343587 0.000343586 0.000350284 0.000350283
        </DataArray>
      </PointData>
      <CellData Scalars="process rank">
        <DataArray type="Float32" Name="process rank" NumberOfComponents="1" format="ascii">
          0 0 0 0 0 0 0 0 0 0 0 0
          0 0 0 0 0 0 0 0 0 0 0 0
          0 0 0 0 0 0 0 0
        </DataArray>
      </CellData>
      <Points>
        <DataArray type="Float32" Name="Coordinates" NumberOfComponents="3" format="ascii">
          0.0254 0.00625 0 0 0.00625 0 0.0254 0 0 0 0 0
          0.0254 0.0125 0 0 0.0125 0 0.0254 0.01875 0 0 0.01875 0
          0.0254 0.025 0 0 0.025 0 0.0254 0.03125 0 0 0.03125 0
          0.0254 0.0375 0 0 0.0375 0 0.0254 0.04375 0 0 0.04375 0
          0.0254 0.05 0 0 0.05 0 0.0254 0.06875 0 0 0.06875 0
          0.0254 0.0875 0 0 0.0875 0 0.0254 0.10625 0 0 0.10625 0
          0.0254 0.125 0 0 0.125 0 0.0254 0.14375 0 0 0.14375 0
          0.0254 0.1625 0 0 0.1625 0 0.0254 0.18125 0 0 0.18125 0
          0.0254 0.2 0 0 0.2 0 0.0254 0.25125 0 0 0.25125 0
          0.0254 0.3025 0 0 0.3025 0 0.0254 0.35375 0 0 0.35375 0
          0.0254 0.405 0 0 0.405 0 0.0254 0.45625 0 0 0.45625 0
          0.0254 0.5075 0 0 0.5075 0 0.0254 0.55875 0 0 0.55875 0
          0.0254 0.61 0 0 0.61 0 0.0254 0.63375 0 0 0.63375 0
          0.0254 0.6575 0 0 0.6575 0 0.0254 0.68125 0 0 0.68125 0
          0.0254 0.705 0 0 0.705 0 0.0254 0.72875 0 0 0.72875 0
          0.0254 0.7525 0 0 0.7525 0 0.0254 0.77625 0 0 0.77625 0
          0.0254 0.8 0 0 0.8 0
        </DataArray>
      </Points>
      <Cells>
        <DataArray type="Int32" Name="connectivity" NumberOfComponents="1" format="ascii">
          0 1 3 2 4 5 1 0 6 7 5 4
          8 9 7 6 10 11 9 8 12 13 11 10
          14 15 13 12 16 17 15 14 18 19 17 16
          20 21 19 18 22 23 21 20 24 25 23 22
          26 27 25 24 28 29 27 26 30 31 29 28
          32 33 31 30 34 35 33 32 36 37 35 34
          38 39 37 36 40 41 39 38 42 43 41 40
          44 45 43 42 46 47 45 44 48 49 47 46
          50 51 49 48 52 53 51 50 54 55 53 52
          56 57 55 54 58 59 57 56 60 61 59 58
          62 63 61 60 64 65 63 62
        </DataArray>
        <DataArray type="Int32" Name="offsets" NumberOfComponents="1" format="ascii">
          4 8 12 16 20 24 28 32 36 40 44 48
          52 56 60 64 68 72 76 80 84 88 92 96
          100 104 108 112 116 120 124 128
        </DataArray>
        <DataArray type="UInt8" Name="types" NumberOfComponents="1" format="ascii">
          9 9 9 9 9 9 9 9 9 9 9 9
          9 9 9 9 9 9 9 9 9 9 9 9
          9 9 9 9 9 9 9 9
        </DataArray>
      </Cells>
    </Piece>
  </UnstructuredGrid>
</VTKFile>
